
{ "height":11,
 "layers":[
        {
         "data":[3, 4, 1, 2, 6, 5, 4, 7, 9, 8, 1, 1,
				 11, 13, 1, 1, 1, 1, 1, 1, 1, 1, 1, 1,
				 12, 13, 1, 2, 3, 1, 1, 1, 1, 1, 1, 1,
				 1, 1, 1, 2, 3, 1, 1, 1, 1, 1, 1, 1,
				 1, 1, 1, 2, 3, 1, 1, 1, 1, 1, 1, 1, 
				 1, 1, 1, 1, 1, 1, 1, 1, 1, 1, 1, 1,
				 1, 1, 1, 1, 1, 1, 1, 1, 1, 1, 1, 1,
				 1, 1, 1, 1, 1, 1, 1, 1, 1, 1, 1, 1,
				 1, 1, 1, 1, 1, 1, 1, 1, 1, 1, 1, 1,
				 1, 1, 1, 1, 1, 1, 1, 1, 1, 1, 1, 1, 
				 1, 1, 1, 1, 1, 1, 1, 1, 1, 1, 1, 1
				 ],
         "height":11,
         "name":"World1",
         "opacity":1,
         "properties":
            {
             "time":"1000"
            },
         "type":"tilelayer",
         "visible":true,
         "width":12,
         "x":0,
         "y":0
        }],
 "orientation":"orthogonal",
 "properties":
    {
     "mapProp":"123"
    },
 "tileheight":64,
 "tilesets":[
        {
         "firstgid":1,
         "image":"Maze_Walkers_Tiles2.png",
         "imageheight":640,
         "imagewidth":640,
         "margin":0,
         "name":"MazeLevel1",
         "properties":
            {

            },
         "spacing":0,
         "tileheight":64,
         "tileproperties":
            {
             "10":
                {
                 "coin":"true"
                }
            },
         "tilewidth":64
        }],
 "tilewidth":63,
 "version":1,
 "width":12
}